{
  "version": "1.0",
  "defaultProvider": "cdnjs",
  "libraries": [
    {
      "provider": "cdnjs",
      "library": "popper.js@1.14.3",
      "destination": "wwwroot/lib/popper"
    },
    {
      "provider": "cdnjs",
      "library": "modernizr@2.8.3",
      "destination": "wwwroot/lib/modernizr"
    },
    {
      "provider": "cdnjs",
      "library": "moment.js@2.22.2",
      "destination": "wwwroot/lib/moment.js"
    },
    {
      "provider": "cdnjs",
      "library": "respond.js@1.4.2",
      "destination": "wwwroot/lib/respond"
    },
    {
      "provider": "cdnjs",
      "library": "jquery.ui.combined@1.12.1",
      "destination": "wwwroot/lib/jquery-ui-combined"
    },
    {
      "provider": "cdnjs",
      "library": "jquery.validation",
      "destination": "wwwroot/lib/jquery-validation"
    },
    {
      "provider": "cdnjs",
      "library": "twitter-bootstrap@4.1.3",
      "destination": "wwwroot/lib/bootstrap/"
    }
  ]
}